{
    "compilerOptions": {
        "baseUrl": ".",
        "paths": {
            "@src/*": [
                "src/*"
            ],
            "@pages/*": [
                "src/pages/*"
            ],
            "@components/*": [
                "src/components/*"
            ],
            "@store/*": [
                "src/store/*"
            ],
            "@router/*": [
                "src/router/*"
            ],
            "@layouts/*": [
                "src/layouts/*"
            ],
            "@unit-tests/*": [
                "tests/unit/*"
            ]
        }
    },
    "exclude": [
        "dist",
        "node_modules"
    ]
}
